…
``` r
group_by(raw_clean, date) %>%
  tally() %>%
  filter(n > 2)
```

    ## # A tibble: 1,107 × 2
    ##    date                     n
    ##    <chr>                <int>
    ##  1 2010-10-28T00:00:00Z    58
    ##  2 2010-10-29T00:00:00Z    17
    ##  3 2010-10-30T00:00:00Z     5
    ##  4 2010-10-31T00:00:00Z     4
    ##  5 2010-11-02T00:00:00Z     3
    ##  6 2010-11-13T00:00:00Z     5
    ##  7 2010-11-15T00:00:00Z     3
    ##  8 2010-11-24T00:00:00Z     3
    ##  9 2010-11-26T00:00:00Z     3
    ## 10 2010-11-27T00:00:00Z     3
    ## # … with 1,097 more rows
…
    ## `summarise()` has grouped output by 'wy'. You can override using the `.groups` argument.

    ## Joining, by = "wy"

    ## # A tibble: 24 × 5
    ## # Groups:   wy [11]
    ##    wy    random count total proportion_total
    ##    <fct> <chr>  <int> <int>            <dbl>
    ##  1 2010  No         0     0       NaN       
    ##  2 2010  Yes        0     0       NaN       
    ##  3 2011  No         6  9896         0.000606
    ##  4 2011  Yes     9890  9896         0.999   
    ##  5 2012  No         0     5         0       
    ##  6 2012  Yes        5     5         1       
    ##  7 2013  No         6  2217         0.00271 
    ##  8 2013  Yes     2211  2217         0.997   
    ##  9 2014  No         9 55765         0.000161
    ## 10 2014  Yes    55756 55765         1.00    
    ## # … with 14 more rows
…
