…
Read in data from google cloud, glimpse raw data and domain description
sheet:

``` r
# read in data to clean
# RST Data
rst_data_sheets <- readxl::excel_sheets("raw_feather_rst_data.xlsx")
survey_year_details  <- readxl::read_excel("raw_feather_rst_data.xlsx", 
                                           sheet = "Survey Year Details") 
survey_year_details
```

    ## # A tibble: 55 x 5
    ##    Site       Location          `Survery Start`     `Survey End`        Notes   
    ##    <chr>      <chr>             <dttm>              <dttm>              <chr>   
    ##  1 Eye Riffle Low Flow Channel  1997-12-22 00:00:00 1998-07-01 00:00:00 <NA>    
    ##  2 Live Oak   High Flow Channel 1997-12-22 00:00:00 1998-07-01 00:00:00 <NA>    
    ##  3 Eye Riffle Low Flow Channel  1998-12-10 00:00:00 1999-08-31 00:00:00 Fished ~
    ##  4 Live Oak   High Flow Channel 1998-12-16 00:00:00 1999-09-09 00:00:00 Fished ~
    ##  5 Eye Riffle Low Flow Channel  1999-09-20 00:00:00 2000-08-31 00:00:00 <NA>    
    ##  6 Live Oak   High Flow Channel 1999-09-20 00:00:00 2000-08-31 00:00:00 <NA>    
    ##  7 Eye Riffle Low Flow Channel  2000-11-27 00:00:00 2001-06-21 00:00:00 <NA>    
    ##  8 Live Oak   High Flow Channel 2000-11-27 00:00:00 2001-06-21 00:00:00 <NA>    
    ##  9 Eye Riffle Low Flow Channel  2001-11-26 00:00:00 2002-06-14 00:00:00 <NA>    
    ## 10 Live Oak   High Flow Channel 2001-11-26 00:00:00 2002-01-14 00:00:00 <NA>    
    ## # ... with 45 more rows
…
