…
Read in data from google cloud, glimpse raw data and domain description
sheet:

``` r
# read in data to clean
# RST Data
rst_data_sheets <- readxl::excel_sheets("raw_feather_rst_sampling_effort_data.xlsx")
location_details  <- readxl::read_excel("raw_feather_rst_sampling_effort_data.xlsx", 
                                           sheet = "RST Location Details") 
location_details
```

    ## # A tibble: 23 x 6
    ##    SiteName         subSiteName `River location` Latitude Longitude `River Mile`
    ##    <chr>            <chr>       <chr>            <chr>    <chr>            <dbl>
    ##  1 Steep Riffle     #Steep Rif~ LFC              "39°27'~ "121°36'~         61  
    ##  2 Steep Riffle     Steep Riff~ LFC              "39°27'~ "121°36'~         61  
    ##  3 Steep Riffle     Steep Side~ LFC              "39°27'~ "121°36'~         61  
    ##  4 Eye Riffle       Eye riffle~ LFC              "39°27'~ "121°36'~         60.2
    ##  5 Eye Riffle       Eye riffle~ LFC              "39°27'~ "121°36'~         60.2
    ##  6 Live Oak         Live Oak    HFC              "39°16'~ "121°37'~         41  
    ##  7 Herringer Riffle Herringer_~ HFC              "39°18'~ "121°37'~         46  
    ##  8 Herringer Riffle Herringer_~ HFC              "39°18'~ "121°37'~         46  
    ##  9 Herringer Riffle Herringer_~ HFC              "39°18'~ "121°37'~         46  
    ## 10 Sunset Pumps     Sunset Eas~ HFC              "39°14'~ "121°38'~         38.5
    ## # ... with 13 more rows
…
