…
``` r
group_by(raw_clean, date) %>%
  tally() %>%
  filter(n > 2)
```

    ## # A tibble: 1,107 × 2
    ##    date                    n
    ##    <dttm>              <int>
    ##  1 2010-10-28 00:00:00    58
    ##  2 2010-10-29 00:00:00    17
    ##  3 2010-10-30 00:00:00     5
    ##  4 2010-10-31 00:00:00     4
    ##  5 2010-11-02 00:00:00     3
    ##  6 2010-11-13 00:00:00     5
    ##  7 2010-11-15 00:00:00     3
    ##  8 2010-11-24 00:00:00     3
    ##  9 2010-11-26 00:00:00     3
    ## 10 2010-11-27 00:00:00     3
    ## # … with 1,097 more rows
…
    ## `summarise()` has grouped output by 'wy'. You can override using the `.groups` argument.

    ## Joining, by = "wy"

    ## # A tibble: 24 × 5
    ## # Groups:   wy [11]
    ##    wy    random count total proportion_total
    ##    <fct> <chr>  <dbl> <dbl>            <dbl>
    ##  1 2010  No         0     0       NaN       
    ##  2 2010  Yes        0     0       NaN       
    ##  3 2011  No         6  9896         0.000606
    ##  4 2011  Yes     9890  9896         0.999   
    ##  5 2012  No         0     5         0       
    ##  6 2012  Yes        5     5         1       
    ##  7 2013  No         6  2217         0.00271 
    ##  8 2013  Yes     2211  2217         0.997   
    ##  9 2014  No         9 55765         0.000161
    ## 10 2014  Yes    55756 55765         1.00    
    ## # … with 14 more rows
…
Natural and Hatchery are the options for this variable. Most all are
Natural but there are some Hatchery.

``` r
unique(raw_clean$rearing)
```

    ## [1] "Natural"  "Hatchery"

``` r
filter(raw_clean, rearing == "Natural", mark_type != "No marks or tags") %>%
  select(date, fork_length_mm, at_capture_run, count, rearing)
```

    ## # A tibble: 22 × 5
    ##    date                fork_length_mm at_capture_run count rearing
    ##    <dttm>                       <dbl> <chr>          <dbl> <chr>  
    ##  1 2011-01-20 00:00:00             35 Fall               1 Natural
    ##  2 2011-01-20 00:00:00             39 Fall               1 Natural
    ##  3 2011-01-20 00:00:00             41 Fall               1 Natural
    ##  4 2011-01-20 00:00:00             43 Fall               1 Natural
    ##  5 2011-04-28 00:00:00             78 Fall               1 Natural
    ##  6 2011-05-01 00:00:00             81 Fall               1 Natural
    ##  7 2011-05-01 00:00:00             86 Fall               1 Natural
    ##  8 2011-05-02 00:00:00             61 Fall               1 Natural
    ##  9 2013-05-10 00:00:00             90 Fall               1 Natural
    ## 10 2013-05-10 00:00:00             91 Fall               1 Natural
    ## # … with 12 more rows
…
Data is for fish with mostly no marks or tags.

``` r
unique(raw_clean$mark_type)
```

    ## [1] "No marks or tags" "Fin clip"         "Pigment / dye"    "Elastomer"

``` r
# curious whether there are cases when natural fish have marks.
filter(raw_clean, rearing == "Natural", mark_type != "No marks or tags") %>%
  select(date, fork_length_mm, at_capture_run, count, rearing, mark_type)
```

    ## # A tibble: 22 × 6
    ##    date                fork_length_mm at_capture_run count rearing mark_type    
    ##    <dttm>                       <dbl> <chr>          <dbl> <chr>   <chr>        
    ##  1 2011-01-20 00:00:00             35 Fall               1 Natural Pigment / dye
    ##  2 2011-01-20 00:00:00             39 Fall               1 Natural Pigment / dye
    ##  3 2011-01-20 00:00:00             41 Fall               1 Natural Pigment / dye
    ##  4 2011-01-20 00:00:00             43 Fall               1 Natural Pigment / dye
    ##  5 2011-04-28 00:00:00             78 Fall               1 Natural Pigment / dye
    ##  6 2011-05-01 00:00:00             81 Fall               1 Natural Pigment / dye
    ##  7 2011-05-01 00:00:00             86 Fall               1 Natural Pigment / dye
    ##  8 2011-05-02 00:00:00             61 Fall               1 Natural Pigment / dye
    ##  9 2013-05-10 00:00:00             90 Fall               1 Natural Fin clip     
    ## 10 2013-05-10 00:00:00             91 Fall               1 Natural Fin clip     
    ## # … with 12 more rows
…
    ## # A tibble: 0 × 21
    ## # … with 21 variables: date <dttm>, trap_position <chr>, fish_processed <chr>,
    ## #   species <chr>, fork_length_mm <dbl>, weight <dbl>, life_stage <chr>,
    ## #   at_capture_run <chr>, final_run <chr>, mortality <chr>, random <chr>,
    ## #   analyses <chr>, rearing <chr>, release_id <dbl>, mark_type <chr>,
    ## #   mark_position <chr>, mark_color <chr>, trap_visit_comment <chr>,
    ## #   catch_comment <lgl>, location <chr>, count <dbl>

``` r
filter(raw_clean, mark_color != "Not applicable (n/a)") %>%
  select(date, fork_length_mm, at_capture_run, count, rearing, mark_type, mark_color)
```

    ## # A tibble: 35 × 7
    ##    date                fork_length_mm at_capture_run count rearing mark_type    
    ##    <dttm>                       <dbl> <chr>          <dbl> <chr>   <chr>        
    ##  1 2011-01-20 00:00:00             35 Fall               1 Natural Pigment / dye
    ##  2 2011-01-20 00:00:00             39 Fall               1 Natural Pigment / dye
    ##  3 2011-01-20 00:00:00             41 Fall               1 Natural Pigment / dye
    ##  4 2011-01-20 00:00:00             43 Fall               1 Natural Pigment / dye
    ##  5 2011-04-28 00:00:00             78 Fall               1 Natural Pigment / dye
    ##  6 2011-05-01 00:00:00             81 Fall               1 Natural Pigment / dye
    ##  7 2011-05-01 00:00:00             86 Fall               1 Natural Pigment / dye
    ##  8 2011-05-02 00:00:00             61 Fall               1 Natural Pigment / dye
    ##  9 2016-01-17 00:00:00             37 Fall               1 Natural Pigment / dye
    ## 10 2016-01-18 00:00:00             37 Fall               1 Natural Pigment / dye
    ## # … with 25 more rows, and 1 more variable: mark_color <chr>
…
