…
``` r
distinct(cleaner_full_redd_survey_data, latitude)
```

    ## # A tibble: 9,152 x 1
    ##    latitude
    ##       <dbl>
    ##  1      NA 
    ##  2       1 
    ##  3  393056.
    ##  4  393056.
    ##  5  393056.
    ##  6  393056.
    ##  7  393056.
    ##  8  393056.
    ##  9  393056.
    ## 10  393057.
    ## # ... with 9,142 more rows

``` r
summary(cleaner_full_redd_survey_data$latitude)
```

    ##    Min. 1st Qu.  Median    Mean 3rd Qu.    Max.    NA's 
    ##       1 4374974 4375010 3991592 4375053 4394990   18818

``` r
cleaner_full_redd_survey_data %>% 
  count(latitude)
```

    ## # A tibble: 9,152 x 2
    ##    latitude     n
    ##       <dbl> <int>
    ##  1       1    146
    ##  2  392226.     1
    ##  3  392226.     1
    ##  4  392227.     1
    ##  5  392227.     1
    ##  6  392227.     1
    ##  7  392227.     1
    ##  8  392227.     1
    ##  9  392228.     1
    ## 10  392241.     1
    ## # ... with 9,142 more rows

\*latitude at 1.0 is converted to NA

``` r
cleaner_full_redd_survey_data$latitude <-
  na_if(cleaner_full_redd_survey_data$latitude, 1) 
cleaner_full_redd_survey_data %>%
  count(latitude)
```

    ## # A tibble: 9,151 x 2
    ##    latitude     n
    ##       <dbl> <int>
    ##  1  392226.     1
    ##  2  392226.     1
    ##  3  392227.     1
    ##  4  392227.     1
    ##  5  392227.     1
    ##  6  392227.     1
    ##  7  392227.     1
    ##  8  392228.     1
    ##  9  392241.     1
    ## 10  392243.     1
    ## # ... with 9,141 more rows
…
**Numeric Summary of \[Variable\] over Period of Record**

``` r
summary(cleaner_full_redd_survey_data$longitude)
```

    ##    Min. 1st Qu.  Median    Mean 3rd Qu.    Max.    NA's 
    ##       1  623778  624009  663335  624216 6245105   18817

``` r
distinct(cleaner_full_redd_survey_data, longitude)
```

    ## # A tibble: 9,262 x 1
    ##    longitude
    ##        <dbl>
    ##  1       NA 
    ##  2        1 
    ##  3  1213338.
    ##  4  1213338.
    ##  5  1213338.
    ##  6  1213338.
    ##  7  1213337.
    ##  8  1213337.
    ##  9  1213334.
    ## 10  1213334.
    ## # ... with 9,252 more rows

``` r
cleaner_full_redd_survey_data %>% 
  count(longitude)
```

    ## # A tibble: 9,262 x 2
    ##    longitude     n
    ##        <dbl> <int>
    ##  1        1    147
    ##  2   617030.     1
    ##  3   617104.     1
    ##  4   617166.     1
    ##  5   617201.     1
    ##  6   617207.     1
    ##  7   617212.     1
    ##  8   617216.     1
    ##  9   617216.     1
    ## 10   617216.     1
    ## # ... with 9,252 more rows

\*longitude at 1.0 is converted to NA

``` r
cleaner_full_redd_survey_data$longitude <-
  na_if(cleaner_full_redd_survey_data$longitude, 1) 
cleaner_full_redd_survey_data %>%
  count(longitude)
```

    ## # A tibble: 9,261 x 2
    ##    longitude     n
    ##        <dbl> <int>
    ##  1   617030.     1
    ##  2   617104.     1
    ##  3   617166.     1
    ##  4   617201.     1
    ##  5   617207.     1
    ##  6   617212.     1
    ##  7   617216.     1
    ##  8   617216.     1
    ##  9   617216.     1
    ## 10   617236.     1
    ## # ... with 9,251 more rows
…
**Numeric Summary of pot\_depth\_m over Period of Record**

``` r
summary(cleaner_full_redd_survey_data$pot_depth_m)
```

    ##    Min. 1st Qu.  Median    Mean 3rd Qu.    Max.    NA's 
    ##   0.000   0.400   0.500   0.549   0.620  50.000   24413

``` r
distinct(cleaner_full_redd_survey_data, pot_depth_m)
```

    ## # A tibble: 102 x 1
    ##    pot_depth_m
    ##          <dbl>
    ##  1       NA   
    ##  2        0.9 
    ##  3        0.76
    ##  4        0.7 
    ##  5        0.52
    ##  6        0.66
    ##  7        0.6 
    ##  8        0.8 
    ##  9        0.42
    ## 10        0.72
    ## # ... with 92 more rows

``` r
cleaner_full_redd_survey_data %>% 
  count(pot_depth_m)
```

    ## # A tibble: 102 x 2
    ##    pot_depth_m     n
    ##          <dbl> <int>
    ##  1        0        1
    ##  2        0.1      1
    ##  3        0.13     1
    ##  4        0.15     4
    ##  5        0.16     2
    ##  6        0.17     2
    ##  7        0.18     3
    ##  8        0.19     3
    ##  9        0.2     20
    ## 10        0.21     8
    ## # ... with 92 more rows
…
