…
    ##    Min. 1st Qu.  Median    Mean 3rd Qu.    Max. 
    ##    0.00   34.00   35.00   41.55   37.00  148.00

**NA and Unknown Values**

-   0 % of values in the `fork_length` column are NA.

-   0 for `fork_length` seems like an NA or error

``` r
cleaner_rst_count %>% filter(fork_length == 0 & !is.na(count))
```

    ## # A tibble: 750 x 8
    ##    date       sample_id run   fork_length lifestage count dead  interpolated
    ##    <date>     <chr>     <chr>       <dbl> <chr>     <dbl> <chr> <chr>       
    ##  1 2003-12-13 347_03    S               0 N/P           1 NO    NO          
    ##  2 2003-12-13 347_03    F               0 C1            2 NO    NO          
    ##  3 2003-12-14 348_03    S               0 N/P          28 NO    YES         
    ##  4 2003-12-14 348_03    F               0 N/P         125 NO    YES         
    ##  5 2003-12-21 355_03    F               0 C1          109 NO    NO          
    ##  6 2003-12-28 363_03    F               0 N/P          33 NO    YES         
    ##  7 2003-12-30 364_03    F               0 N/P          39 NO    YES         
    ##  8 2004-01-01 001_04    F               0 N/P          62 NO    YES         
    ##  9 2004-01-02 002_04    F               0 N/P          62 NO    YES         
    ## 10 2004-01-10 010_04    F               0 C0           30 YES   NO          
    ## # ... with 740 more rows
…
