…
    ## Rows: 98,935
    ## Columns: 7
    ## $ ID                <chr> "98802", "98803", "98804", "98805", "98806", "98807"~
    ## $ date              <date> 2020-05-06, 2020-05-06, 2020-05-06, 2020-05-06, 202~
    ## $ tag_number        <chr> "25703", "25704", "25705", "25707", "25708", "25709"~
    ## $ second_tag_number <chr> NA, NA, NA, NA, NA, NA, NA, NA, NA, NA, NA, NA, NA, ~
    ## $ color             <chr> "G", "G", "G", "G", "G", "G", "G", "G", "G", "G", "G~
    ## $ acoustic          <chr> NA, NA, NA, NA, NA, NA, NA, NA, NA, NA, NA, NA, NA, ~
    ## $ acoustic_location <chr> NA, NA, NA, NA, NA, NA, NA, NA, NA, NA, NA, NA, NA, ~

``` r
cleaner_hallprint_data %>% filter(acoustic == "Y")
```

    ## # A tibble: 244 x 7
    ##    ID     date       tag_number second_tag_number color acoustic acoustic_locati~
    ##    <chr>  <date>     <chr>      <chr>             <chr> <chr>    <chr>           
    ##  1 101548 2020-05-13 4497       4498              R?    Y        SRA             
    ##  2 101549 2020-05-20 4495       4496              R?    Y        SRA             
    ##  3 108143 2018-05-24 1437       1438              R     Y        FRFH            
    ##  4 108144 2018-05-24 1439       1440              R     Y        FRFH            
    ##  5 108145 2018-05-24 1441       1442              R     Y        FRFH            
    ##  6 108146 2018-05-24 1443       <NA>              R     Y        FRFH            
    ##  7 108147 2018-05-24 1445       1446              R     Y        FRFH            
    ##  8 108148 2018-05-24 1447       1448              R     Y        FRFH            
    ##  9 108149 2018-05-24 1449       1450              R     Y        FRFH            
    ## 10 108150 2018-05-24 2969       2970              P     Y        FRFH            
    ## # ... with 234 more rows
…
