…
**Numeric Summary of viewing_adjust From 2014 to 2023**

``` r
all_deer_data |> 
  group_by(year(date), viewing_adjust) |> 
  tally()
```

    ## # A tibble: 42 × 3
    ## # Groups:   year(date) [10]
    ##    `year(date)` viewing_adjust      n
    ##           <dbl> <chr>           <int>
    ##  1         2014 DIDSON           2740
    ##  2         2014 VAKI            26406
    ##  3         2014 turbid           1068
    ##  4         2015 VAKI            85224
    ##  5         2015 equipment fail     76
    ##  6         2015 turbid           1196
    ##  7         2015 <NA>             1404
    ##  8         2016 GV                  4
    ##  9         2016 VAKI           102792
    ## 10         2016 equipment fail    132
    ## # ℹ 32 more rows
…
