…
    ##    Min. 1st Qu.  Median    Mean 3rd Qu.    Max. 
    ##       0      34      36      37      38     149

**NA and Unknown Values**

-   0 % of values in the `fork_length` column are NA.

-   0 for `fork_length` seems like an NA or error

``` r
cleaner_rst_count %>% filter(fork_length == 0 & !is.na(count))
```

    ## # A tibble: 6,995 x 9
    ##    station_code date       sample_id run   fork_length lifestage count dead 
    ##    <chr>        <date>     <chr>     <chr>       <dbl> <chr>     <dbl> <chr>
    ##  1 LCC          2003-12-14 348_03    <NA>            0 C1          154 NO   
    ##  2 LCC          2003-12-14 348_03    <NA>            0 C1           23 YES  
    ##  3 LCC          2003-12-14 348_03    <NA>            0 C1           58 YES  
    ##  4 LCC          2003-12-14 348_03    <NA>            0 C1           60 NO   
    ##  5 LCC          2003-12-15 349_03    <NA>            0 C1          251 NO   
    ##  6 LCC          2003-12-15 349_03    <NA>            0 C1           49 NO   
    ##  7 LCC          2003-12-20 354_03    <NA>            0 C1          135 NO   
    ##  8 LCC          2003-12-20 354_03    S               0 C1            5 NO   
    ##  9 LCC          2003-12-24 358_03    <NA>            0 C1          821 YES  
    ## 10 LCC          2003-12-24 358_03    <NA>            0 C1          736 NO   
    ## # ... with 6,985 more rows, and 1 more variable: interpolated <chr>
…
