…
    ## character(0)

``` r
chop_cleaner <- chop_join %>%
  mutate(date = as_date(date)) %>%
  mutate_if(is.character, str_to_lower)

chop_cleaner
```

    ## # A tibble: 813 x 5
    ##       id date         sec   min count
    ##    <dbl> <date>     <dbl> <dbl> <dbl>
    ##  1   312 2015-09-08    15    27     0
    ##  2   312 2015-09-08    14    12     0
    ##  3   312 2015-09-08    13    15     0
    ##  4   312 2015-09-08    12    11     0
    ##  5   312 2015-09-08    11    14     0
    ##  6   312 2015-09-08    10    24     0
    ##  7   312 2015-09-08     9    13     0
    ##  8   312 2015-09-08     8    13     0
    ##  9   312 2015-09-08     7     2     0
    ## 10   312 2015-09-08     6     1     0
    ## # ... with 803 more rows
…
chop_header_cleaner
```

    ## # A tibble: 98 x 6
    ##    date       week_number weather crew           comments    id
    ##    <date>     <chr>       <chr>   <chr>          <chr>    <dbl>
    ##  1 2015-09-08 1           sun     cm,kh,c,sr     <NA>       312
    ##  2 2015-09-09 1           sun     cm,tk,kh,cc    <NA>       313
    ##  3 2015-09-10 1           sun     cjc,sr,kt,tk   <NA>       315
    ##  4 2015-09-14 2           cloudy  cjc,tk,jk      <NA>       314
    ##  5 2015-09-15 2           cloudy  jc,cjc,tk      <NA>       320
    ##  6 2015-09-16 2           cloudy  sr,tv,th,ai    <NA>       316
    ##  7 2015-09-17 2           sun     mi,th,tw,sr    <NA>       317
    ##  8 2015-09-21 3           sun     cm,kh,tj,tv    <NA>       318
    ##  9 2015-09-21 3           sun     sr,cjc,th,tk   <NA>       319
    ## 10 2015-09-22 3           sun     cm,tk,tj,texas <NA>       321
    ## # ... with 88 more rows
…
