…
    ## [1] "R" "L" "M" NA

``` r
chop_channel_cleaner <- chop_channel_join %>%
  mutate(date = as_date(date)) %>%
  mutate_if(is.character, str_to_lower) %>% 
  select(-c(time))

chop_channel_cleaner
```

    ## # A tibble: 1,898 x 9
    ##       id tag_col date       chan_id  sect chan    min chops  tags
    ##    <dbl> <chr>   <date>       <dbl> <dbl> <chr> <dbl> <dbl> <dbl>
    ##  1   130 blue1   2008-09-02    3508     8 r         5     0     0
    ##  2   130 blue1   2008-09-02    3509     9 l         3     0     0
    ##  3   130 blue1   2008-09-02    3510     9 m         3     0     0
    ##  4   130 blue1   2008-09-02    3511     9 r         3     0     0
    ##  5   130 blue1   2008-09-02    3512    10 l         6     0     0
    ##  6   130 blue1   2008-09-02    3513    10 m        14     0     0
    ##  7   130 blue1   2008-09-02    3514    10 r         6     0     0
    ##  8   130 blue1   2008-09-02    3515    11 l         9     0     0
    ##  9   130 blue1   2008-09-02    3516    11 m        10     0     0
    ## 10   130 blue1   2008-09-02    3517    11 r        10     1     0
    ## # ... with 1,888 more rows
…
    ##  [1] NA   "7"  "5"  "6"  "8"  "9"  "10" "11" "12" "13" "14" "1"  "4"

``` r
chop_recovery_cleaner <- chop_recovery_join %>% 
  mutate(date = as_date(date)) %>%
  mutate_if(is.character, str_to_lower) %>% 
  select(-c(time))

chop_recovery_cleaner
```

    ## # A tibble: 205 x 5
    ##       id date       recov_color recov_count chan_id
    ##    <dbl> <date>     <chr>             <dbl>   <dbl>
    ##  1   130 2008-09-02 <NA>                 NA      NA
    ##  2    78 2008-09-03 <NA>                 NA      NA
    ##  3    79 2008-09-08 <NA>                 NA      NA
    ##  4    80 2008-09-09 <NA>                 NA      NA
    ##  5    81 2008-09-15 <NA>                 NA      NA
    ##  6    82 2008-09-15 <NA>                 NA      NA
    ##  7    83 2008-09-17 <NA>                 NA      NA
    ##  8    85 2008-09-22 <NA>                 NA      NA
    ##  9    86 2008-09-29 <NA>                 NA      NA
    ## 10    87 2008-09-30 <NA>                 NA      NA
    ## # ... with 195 more rows
…
    ## [1] "SUN" "CLD" "RAN"

``` r
chop_header_cleaner <- chop_header %>%
  mutate(date = as_date(date)) %>%
  mutate_if(is.character, str_to_lower) %>% 
  mutate(crew = str_replace_all(crew, " ", ","),
         crew = str_replace_all(crew, ",,", ","),
         weather = ifelse(weather == "ran", "rain", weather)) %>% 
  select(-c(time))

chop_header_cleaner
```

    ## # A tibble: 49 x 8
    ##       id tag_col date       crew        recorder weather comment week_num
    ##    <dbl> <chr>   <date>     <chr>       <chr>    <chr>   <chr>      <dbl>
    ##  1   130 blue1   2008-09-02 kh,th,tk,jc jc       sun     <NA>           1
    ##  2    78 blue1   2008-09-03 tv,th,gs,tk gs       sun     <NA>           1
    ##  3    79 yellow2 2008-09-08 aj,kh,tk,tv aj       sun     <NA>           2
    ##  4    80 yellow2 2008-09-09 tv,mm,tk    mm       sun     <NA>           2
    ##  5    81 white3  2008-09-15 tv,cc,tk    tv       sun     <NA>           3
    ##  6    82 white3  2008-09-15 aj,kh,kt    aj       sun     <NA>           3
    ##  7    83 white3  2008-09-17 aj,tv,mm,th aj       sun     <NA>           3
    ##  8    85 red4    2008-09-22 aj,tk,mm    aj       sun     <NA>           4
    ##  9    86 blue 5  2008-09-29 km,cc,mm,kw kh       sun     <NA>           5
    ## 10    87 blue 5  2008-09-30 ks,km,gas   <NA>     sun     <NA>           5
    ## # ... with 39 more rows
…
