…
    ## Joining, by = "date"

``` r
full_join(total_chops_summary, total_tags_with_dates_summary) %>% 
  select(date, total_chops, total_tags) %>% 
  pivot_longer(c(total_chops, total_tags), names_to = "mark")
```

    ## Joining, by = "date"

    ## # A tibble: 224 x 3
    ##    date                mark        value
    ##    <dttm>              <chr>       <dbl>
    ##  1 2000-09-05 00:00:00 total_chops    66
    ##  2 2000-09-05 00:00:00 total_tags     NA
    ##  3 2000-09-06 00:00:00 total_chops     7
    ##  4 2000-09-06 00:00:00 total_tags     NA
    ##  5 2000-09-12 00:00:00 total_chops    36
    ##  6 2000-09-12 00:00:00 total_tags     NA
    ##  7 2000-09-13 00:00:00 total_chops    62
    ##  8 2000-09-13 00:00:00 total_tags     NA
    ##  9 2000-09-14 00:00:00 total_chops    19
    ## 10 2000-09-14 00:00:00 total_tags     NA
    ## # ... with 214 more rows
…
