…
    ## Joining, by = "date"

``` r
full_join(total_chops_summary, total_tags_summary) %>% 
  select(date, total_chops, total_tags) %>% 
  pivot_longer(c(total_chops, total_tags), names_to = "mark")
```

    ## Joining, by = "date"

    ## # A tibble: 128 x 3
    ##    date                mark        value
    ##    <dttm>              <chr>       <dbl>
    ##  1 2002-09-03 07:00:00 total_chops    20
    ##  2 2002-09-03 07:00:00 total_tags      0
    ##  3 2002-09-04 07:00:00 total_chops    48
    ##  4 2002-09-04 07:00:00 total_tags      0
    ##  5 2002-09-05 07:00:00 total_chops    17
    ##  6 2002-09-05 07:00:00 total_tags      0
    ##  7 2002-09-09 07:00:00 total_chops    17
    ##  8 2002-09-09 07:00:00 total_tags      1
    ##  9 2002-09-10 07:00:00 total_chops    52
    ## 10 2002-09-10 07:00:00 total_tags      0
    ## # ... with 118 more rows
…
    ## [1] "l" "m" "r" NA  "L" "M" "R" "5"

``` r
chop_channel_cleaner <- chop_channel_join %>%
  mutate(date = as_date(date)) %>%
  mutate_if(is.character, str_to_lower) %>% 
  select(-c(time))

chop_channel_cleaner
```

    ## # A tibble: 4,270 x 11
    ##       id tag_col date       chan_id  sect chan    min male_chop female_chop
    ##    <dbl> <chr>   <date>       <dbl> <dbl> <chr> <dbl>     <dbl>       <dbl>
    ##  1     1 green 1 2002-09-03       1    10 l        15         0           0
    ##  2     1 green 1 2002-09-03       2    10 m        15         0           1
    ##  3     1 green 1 2002-09-03       3    10 r        15         0           0
    ##  4     2 green 1 2002-09-03       4     3 l        15         1           2
    ##  5     2 green 1 2002-09-03       5     3 m        15         0           0
    ##  6     2 green 1 2002-09-03       6     3 r        15         0           1
    ##  7     2 green 1 2002-09-03       7     6 l        15         0           0
    ##  8     2 green 1 2002-09-03       8     6 m        15         0           0
    ##  9     2 green 1 2002-09-03       9     6 r        15         0           2
    ## 10     2 green 1 2002-09-03      10     8 l        15         0           0
    ## # ... with 4,260 more rows, and 2 more variables: grilse <dbl>, tag_count <dbl>
…
    ##  [1] NA         "green 1"  "yellow 1" "blue 1"   "pink 1"   "orange 1"
    ##  [7] "blue 3"   "orange 2" "yellow 3" "yellow 4" "yellow 2" "blue 2"  
    ## [13] "pink 2"   "orange 3" "blue 4"   "orange 4"

``` r
chop_recovery_cleaner <- chop_recovery_join %>% 
  mutate(date = as_date(date)) %>%
  mutate(recov_color = str_replace_all(recov_color, " ", "")) %>% 
  mutate_if(is.character, str_to_lower) %>% 
  select(-c(time))

chop_recovery_cleaner
```

    ## # A tibble: 1,605 x 5
    ##       id date       recov_color recov_count chan_id
    ##    <dbl> <date>     <chr>             <dbl>   <dbl>
    ##  1     1 2002-09-03 <NA>                 NA      NA
    ##  2     2 2002-09-03 <NA>                 NA      NA
    ##  3     3 2002-09-03 green1                1     216
    ##  4     4 2002-09-03 green1                1     220
    ##  5     5 2002-09-03 green1                1     225
    ##  6     6 2002-09-04 green1                1     226
    ##  7     7 2002-09-04 green1                1     230
    ##  8     8 2002-09-04 green1                2     251
    ##  9     9 2002-09-04 green1                3     257
    ## 10    10 2002-09-04 green1                1     260
    ## # ... with 1,595 more rows
…
``` r
chop_header_cleaner <- chop_header %>%
  mutate(date = as_date(date)) %>%
  mutate_if(is.character, str_to_lower) %>% 
  mutate(crew = str_replace_all(crew, " ", ""),
         tag_col = str_replace_all(tag_col, " ", ""),
         recorder = str_replace_all(recorder, " ", ""),
         weather = ifelse(weather == "ran", "rain", weather)) %>% 
  select(-c(time))

chop_header_cleaner
```

    ## # A tibble: 331 x 8
    ##       id tag_col date       crew              recorder weather comment week_num
    ##    <dbl> <chr>   <date>     <chr>             <chr>    <chr>   <chr>      <dbl>
    ##  1     1 green1  2002-09-03 rb,km,mk,ph       rb       sun     <NA>           1
    ##  2     2 green1  2002-09-03 rb,mk,etc.        mk,rb    sun     <NA>           1
    ##  3     3 green1  2002-09-03 at,bc,jk,nd,dg,gk at       sun     <NA>           1
    ##  4     4 green1  2002-09-03 at,bc,jk,nd,dg,gk dg       sun     <NA>           1
    ##  5     5 green1  2002-09-03 at,bc,jk,nd,dg,gk nd,at,gk sun     <NA>           1
    ##  6     6 green1  2002-09-04 tv,at,mk          at       sun     <NA>           1
    ##  7     7 green1  2002-09-04 tv,at,mk          at       sun     <NA>           1
    ##  8     8 green1  2002-09-04 tv,at,mk          at       sun     <NA>           1
    ##  9     9 green1  2002-09-04 kh,ph,dg          ph       sun     <NA>           1
    ## 10    10 green1  2002-09-04 kh,dg,ph          ph       sun     <NA>           1
    ## # ... with 321 more rows
…
