…
    ## character(0)

``` r
chop_cleaner <- chop_join %>%
  mutate(date = as_date(date)) %>%
  mutate_if(is.character, str_to_lower) 

chop_cleaner
```

    ## # A tibble: 869 x 6
    ##       id date         sec   min count comments
    ##    <dbl> <date>     <dbl> <dbl> <dbl> <lgl>   
    ##  1   215 2012-12-19    27    18     0 NA      
    ##  2   215 2012-12-19    28     5     0 NA      
    ##  3   215 2012-12-19    29    10     0 NA      
    ##  4   215 2012-12-19    30    19     0 NA      
    ##  5   215 2012-12-19    31    14     0 NA      
    ##  6   215 2012-12-19    32    27     0 NA      
    ##  7   215 2012-12-19    33    18     0 NA      
    ##  8   215 2012-12-19    34    11     0 NA      
    ##  9   215 2012-12-19    35    10     0 NA      
    ## 10   215 2012-12-19    36    11     0 NA      
    ## # ... with 859 more rows
…
