…
``` r
# print nas
feather_carcass_combined |> 
  group_by(year) |> 
  summarize_all(funs(sum(is.na(.)) / length(.)))
```

    ## # A tibble: 21 × 46
    ##     year tag_num    sect  unit fork_…¹   sex spawn…² float rel_loc comment  date
    ##    <dbl>   <dbl>   <dbl> <dbl>   <dbl> <dbl>   <dbl> <dbl>   <dbl>   <dbl> <dbl>
    ##  1  2000   0.411 0           0   0.394 0.391   0.626 0.412   0.411   0.997     0
    ##  2  2001   0.654 0           1   0.636 0.635   0.760 1       0.654   1         0
    ##  3  2002   1     0           1   1     0.685   1     1       1       1         0
    ##  4  2003   1     0           1   1     0.698   1     1       1       1         0
    ##  5  2004   1     0           1   1     0.696   1     1       1       1         0
    ##  6  2005   1     1.16e-3     1   1     1       1     1       1       1         0
    ##  7  2006   1     7.60e-3     1   1     1       1     1       1       1         0
    ##  8  2007   1     3.11e-3     1   1     1       1     1       1       1         0
    ##  9  2008   1     5.06e-4     1   1     1       1     1       1       1         0
    ## 10  2009   1     2.17e-3     1   0.922 0.922   0.964 1       1       0.996     0
    ## # … with 11 more rows, 35 more variables: tag_col <dbl>, week <dbl>,
    ## #   disposition <dbl>, source_table <dbl>, count <dbl>, recov_id <dbl>,
    ## #   lifestage <dbl>, head_tag <dbl>, recov_tag_id <dbl>, chan <dbl>, min <dbl>,
    ## #   chan_id <dbl>, header_id <dbl>, recov_color <dbl>, tag_id <dbl>,
    ## #   adipose_fin_clipped <dbl>, hall_print1 <dbl>, hall_print2 <dbl>, run <dbl>,
    ## #   river_section <dbl>, samples_collected <dbl>, scales <dbl>, otoliths <dbl>,
    ## #   hallprint <dbl>, hallprint_color <dbl>, location <dbl>, subsample <dbl>, …
…
