…
    ## character(0)

``` r
chop_cleaner <- chop_join %>%
  # mutate(date = as_date(date)) %>%
  mutate_if(is.character, str_to_lower) 
  # select(-c(date))

chop_cleaner
```

    ## # A tibble: 1,139 x 5
    ##       id date                  sec   min count
    ##    <dbl> <dttm>              <dbl> <dbl> <dbl>
    ##  1     1 2013-09-03 00:00:00     6     3     0
    ##  2     1 2013-09-03 00:00:00     7    10     0
    ##  3     1 2013-09-03 00:00:00     5     7     1
    ##  4     1 2013-09-03 00:00:00     1    11     0
    ##  5     1 2013-09-03 00:00:00     4     5     0
    ##  6     1 2013-09-03 00:00:00     8     7     0
    ##  7     1 2013-09-03 00:00:00     9     8     0
    ##  8     1 2013-09-03 00:00:00    10    20     5
    ##  9     1 2013-09-03 00:00:00    11    30     5
    ## 10     1 2013-09-03 00:00:00    12    20     2
    ## # ... with 1,129 more rows
…
    ## Rows: 154
    ## Columns: 6
    ## $ date        <date> 2013-09-03, 2013-09-04, 2013-09-05, 2013-09-10, 2013-09-1~
    ## $ id          <dbl> 1, 2, 3, 4, 5, 6, 7, 8, 9, 10, 11, 12, 13, 14, 15, 16, 17,~
    ## $ week_number <chr> "1", "1", "1", "2", "2", "2", "2", "2", "3", "3", "3", "3"~
    ## $ weather     <chr> "sun", "sun", "sun", "sun", "sun", "sun", "sun", "sun", "s~
    ## $ crew        <chr> "kh,cm,ai", "kh,tv,cm,jr", "ai,cm,jr,tv", "kc,sr,kh,tk", "~
    ## $ comments    <chr> NA, NA, NA, NA, NA, NA, NA, NA, NA, NA, "windy", NA, NA, N~

``` r
chop_header_cleaner
```

    ## # A tibble: 154 x 6
    ##    date          id week_number weather crew        comments
    ##    <date>     <dbl> <chr>       <chr>   <chr>       <chr>   
    ##  1 2013-09-03     1 1           sun     kh,cm,ai    <NA>    
    ##  2 2013-09-04     2 1           sun     kh,tv,cm,jr <NA>    
    ##  3 2013-09-05     3 1           sun     ai,cm,jr,tv <NA>    
    ##  4 2013-09-10     4 2           sun     kc,sr,kh,tk <NA>    
    ##  5 2013-09-10     5 2           sun     ai,jr,jc,ah <NA>    
    ##  6 2013-09-11     6 2           sun     kc,sr,kh,jr <NA>    
    ##  7 2013-09-12     7 2           sun     jc,jr,ac,kc <NA>    
    ##  8 2013-09-12     8 2           sun     kh,ah,tv,sr <NA>    
    ##  9 2013-09-16     9 3           sun     sr,tk,ai,cd <NA>    
    ## 10 2013-09-16    10 3           sun     sm,kc,tv,kh <NA>    
    ## # ... with 144 more rows
…
