…
    ## Joining, by = "date"

``` r
full_join(total_chops_summary, total_tags_summary) %>% 
  select(date, total_chops, total_tags) %>% 
  pivot_longer(c(total_chops, total_tags), names_to = "mark")
```

    ## Joining, by = "date"

    ## # A tibble: 104 x 3
    ##    date                mark        value
    ##    <dttm>              <chr>       <dbl>
    ##  1 2004-09-07 00:00:00 total_chops    29
    ##  2 2004-09-07 00:00:00 total_tags      6
    ##  3 2004-09-08 00:00:00 total_chops     9
    ##  4 2004-09-08 00:00:00 total_tags      0
    ##  5 2004-09-13 00:00:00 total_chops    51
    ##  6 2004-09-13 00:00:00 total_tags      4
    ##  7 2004-09-14 00:00:00 total_chops     5
    ##  8 2004-09-14 00:00:00 total_tags      0
    ##  9 2004-09-20 00:00:00 total_chops   187
    ## 10 2004-09-20 00:00:00 total_tags     28
    ## # ... with 94 more rows
…
    ## [1] "L" "M" "R" "0" NA

``` r
chop_channel_cleaner <- chop_channel_join %>%
  mutate(date = as_date(date), ) %>%
  mutate_if(is.character, str_to_lower) %>% 
  select(-c(time))

chop_channel_cleaner
```

    ## # A tibble: 2,155 x 11
    ##       id tag_col date       chan_id  sect chan    min male_chop female_chop
    ##    <dbl> <chr>   <date>       <dbl> <dbl> <chr> <dbl>     <dbl>       <dbl>
    ##  1   345 orange1 2004-09-07    2381     1 l         4         0           0
    ##  2   345 orange1 2004-09-07    2382     1 m         4         0           1
    ##  3   345 orange1 2004-09-07    2384     2 l         1         0           0
    ##  4   345 orange1 2004-09-07    2385     2 m         1         0           0
    ##  5   345 orange1 2004-09-07    2386     2 r         1         0           0
    ##  6   345 orange1 2004-09-07    2387     3 l         3         0           0
    ##  7   345 orange1 2004-09-07    2388     3 m         1         0           0
    ##  8   345 orange1 2004-09-07    2389     3 r         1         0           0
    ##  9   345 orange1 2004-09-07    2390     4 l         1         1           0
    ## 10   345 orange1 2004-09-07    2391     4 m         1         0           0
    ## # ... with 2,145 more rows, and 2 more variables: grilse <dbl>, tag_count <dbl>
…
    ##  [1] NA         "ORANGE1"  "YELLOW2"  "RED3"     "BLUE4"    "ORANGE5" 
    ##  [7] "YELLOW6"  "RED7"     "BLUE8"    "ORANGE9"  "YELLOW10" "RED11"   
    ## [13] "BLUE12"   "ORANGE13" "YELLOW14"

``` r
chop_recovery_cleaner <- chop_recovery_join %>% 
  mutate(date = as_date(date)) %>%
  mutate_if(is.character, str_to_lower) %>% 
  select(-c(time))

chop_recovery_cleaner
```

    ## # A tibble: 1,442 x 5
    ##       id date       recov_color recov_count chan_id
    ##    <dbl> <date>     <chr>             <dbl>   <dbl>
    ##  1   345 2004-09-07 <NA>                 NA      NA
    ##  2   346 2004-09-07 <NA>                 NA      NA
    ##  3   347 2004-09-07 <NA>                 NA      NA
    ##  4   348 2004-09-07 <NA>                 NA      NA
    ##  5   349 2004-09-07 <NA>                 NA      NA
    ##  6   350 2004-09-07 <NA>                 NA      NA
    ##  7   351 2004-09-07 <NA>                 NA      NA
    ##  8   352 2004-09-08 <NA>                 NA      NA
    ##  9   353 2004-09-08 <NA>                 NA      NA
    ## 10   354 2004-09-08 <NA>                 NA      NA
    ## # ... with 1,432 more rows
…
    ## [1] "SUN" NA    "RAN" "CLD"

``` r
chop_header_cleaner <- chop_header %>%
  mutate(date = as_date(date)) %>%
  mutate_if(is.character, str_to_lower) %>% 
  mutate(crew = str_replace_all(crew, " ", ","),
         crew = str_replace_all(crew, ",,", ","),
         weather = ifelse(weather == "ran", "rain", weather)) %>%  
  select(-c(time))

chop_header_cleaner
```

    ## # A tibble: 160 x 8
    ##       id tag_col date       crew     recorder weather comment week_num
    ##    <dbl> <chr>   <date>     <chr>    <chr>    <chr>   <chr>      <dbl>
    ##  1   345 orange1 2004-09-07 jk,dg,ph jk       sun     <NA>           1
    ##  2   346 orange1 2004-09-07 nd,tv,ph ph       sun     <NA>           1
    ##  3   347 orange1 2004-09-07 nd,tv    nd       sun     <NA>           1
    ##  4   348 orange1 2004-09-07 <NA>     <NA>     <NA>    <NA>           1
    ##  5   349 orange1 2004-09-07 <NA>     <NA>     <NA>    <NA>           1
    ##  6   350 orange1 2004-09-07 nd,tv,ph nd       sun     <NA>           1
    ##  7   351 orange1 2004-09-07 nd,ph,tv nd       sun     <NA>           1
    ##  8   352 orange1 2004-09-08 dg,km,rb dg       sun     <NA>           1
    ##  9   353 orange1 2004-09-08 dg,km,rb dg       sun     <NA>           1
    ## 10   354 orange1 2004-09-08 nd,ph    nd       sun     <NA>           1
    ## # ... with 150 more rows
…
