…
    ## [1] "time"

``` r
chop_cleaner <- chop_join %>%
  mutate(date = as_date(date)) %>%
  mutate_if(is.character, str_to_lower) %>% 
  select(-c(time))

chop_cleaner
```

    ## # A tibble: 1,269 x 5
    ##       id date         sec   min count
    ##    <dbl> <date>     <dbl> <dbl> <dbl>
    ##  1     9 2011-09-06     3   900     0
    ##  2     9 2011-09-06     2  1500     0
    ##  3     9 2011-09-06     4   600     0
    ##  4     9 2011-09-06     6   600     0
    ##  5     9 2011-09-06     7   900     0
    ##  6     9 2011-09-06     5  1200     0
    ##  7     9 2011-09-06     8  1240     0
    ##  8     9 2011-09-06     9   613     0
    ##  9     9 2011-09-06    10  3740     2
    ## 10     9 2011-09-06    11  1800     1
    ## # ... with 1,259 more rows
…
``` r
chop_header_cleaner <- chop_header %>%
  mutate(date = as_date(date)) %>%
  mutate_if(is.character, str_to_lower) %>% 
  mutate(crew = str_replace_all(crew, " ", ","),
         crew = str_replace_all(crew, ",,", ","),
         weather = ifelse(weather == "cloudy", "cld", weather),
         weather = ifelse(weather == "sun/cloudy", "sun, cld", weather)
         ) %>% 
  select(-c(time))

chop_header_cleaner
```

    ## # A tibble: 62 x 6
    ##    date       weather  crew                           comments    id week_number
    ##    <date>     <chr>    <chr>                          <chr>    <dbl> <chr>      
    ##  1 2011-09-06 sun      kh,tk,jc,jc                    <NA>         9 1          
    ##  2 2011-09-07 sun, cld kh,gs,tk,jc                    <NA>        10 1          
    ##  3 2011-09-08 sun      kh,jc                          <NA>        11 1          
    ##  4 2011-09-12 cld      kh,ah,cd,jr,jc,jcall           <NA>        13 2          
    ##  5 2011-09-13 sun      kh,ah,mm,jr,jc,cd              <NA>        14 2          
    ##  6 2011-09-19 sun      cd,cc,jr,sm,jc,ah,kh           <NA>        15 3          
    ##  7 2011-09-20 sun      sm,kh,ah,jr,cd,jc              <NA>        16 3          
    ##  8 2011-09-26 sun      jr,cm,jc,ah,kh,gs,tk,dr,jcall~ <NA>        17 4          
    ##  9 2011-09-27 sun      jr,cc,jc,sm,dr,cd,cm,tk,kh,jc~ recap i~    18 4          
    ## 10 2011-10-03 sun, cld jcall,jc,sm,kh,cm,tk,jr,tv,cd~ <NA>        19 5          
    ## # ... with 52 more rows
…
