…
    ## Joining, by = "date"

``` r
full_join(total_chops_summary, total_tags_summary) %>% 
  select(date, total_chops, total_tags) %>% 
  pivot_longer(c(total_chops, total_tags), names_to = "mark")
```

    ## Joining, by = "date"

    ## # A tibble: 84 x 3
    ##    date                mark        value
    ##    <dttm>              <chr>       <dbl>
    ##  1 2007-09-04 00:00:00 total_chops    16
    ##  2 2007-09-04 00:00:00 total_tags      0
    ##  3 2007-09-05 00:00:00 total_chops     4
    ##  4 2007-09-05 00:00:00 total_tags      9
    ##  5 2007-09-10 00:00:00 total_chops    24
    ##  6 2007-09-10 00:00:00 total_tags      0
    ##  7 2007-09-11 00:00:00 total_chops    19
    ##  8 2007-09-11 00:00:00 total_tags      0
    ##  9 2007-09-17 00:00:00 total_chops    22
    ## 10 2007-09-17 00:00:00 total_tags      6
    ## # ... with 74 more rows
…
    ## [1] "L" "M" "R" NA

``` r
chop_channel_cleaner <- chop_channel_join %>%
  mutate(date = as_date(date)) %>%
  mutate_if(is.character, str_to_lower) %>% 
  select(-c(time))

chop_channel_cleaner
```

    ## # A tibble: 1,617 x 13
    ##       id tag_col date       chan_id  sect chan    min chop_clip chop_n_clip
    ##    <dbl> <chr>   <date>       <dbl> <dbl> <chr> <dbl>     <dbl>       <dbl>
    ##  1     4 blue 1  2007-09-04      29    12 l         8         0           0
    ##  2     4 blue 1  2007-09-04      30    12 m         5         0           0
    ##  3     4 blue 1  2007-09-04      31    13 l         7         0           0
    ##  4     4 blue 1  2007-09-04      32    14 l         8         0           0
    ##  5     4 blue 1  2007-09-04      33    14 m         8         0           0
    ##  6     4 blue 1  2007-09-04      34    15 l         7         0           1
    ##  7     4 blue 1  2007-09-04      35    15 m         7         0           1
    ##  8     3 blue 1  2007-09-04       8     1 m         5         0           0
    ##  9     3 blue 1  2007-09-04       9     1 m         5         0           0
    ## 10     3 blue 1  2007-09-04      10     1 r         7         0           0
    ## # ... with 1,607 more rows, and 4 more variables: chop_uncheck <dbl>,
    ## #   tag_clip <dbl>, tag_n_clip <dbl>, tag_unk <dbl>
…
    ##  [1] "ORANGE 2"  "BLUE 1"    NA          "YELLOW 3"  "RED 4"     "BLUE 5"   
    ##  [7] "ORANGE 6"  "YELLOW 7"  "RED 8"     "BLUE 9"    "ORANGE 10" "YELLOW 11"
    ## [13] "RED 12"    "BLUE 13"

``` r
chop_recovery_cleaner <- chop_recovery_join %>% 
  mutate(date = as_date(date)) %>%
  mutate_if(is.character, str_to_lower) %>% 
  select(-c(time))

chop_recovery_cleaner
```

    ## # A tibble: 341 x 5
    ##       id date       recov_color recov_count chan_id
    ##    <dbl> <date>     <chr>             <dbl>   <dbl>
    ##  1     4 2007-09-04 orange 2              1     265
    ##  2     3 2007-09-04 blue 1                1     261
    ##  3     1 2007-09-04 blue 1                1     109
    ##  4     5 2007-09-05 <NA>                 NA     327
    ##  5     6 2007-09-05 yellow 3              2     329
    ##  6     7 2007-09-05 yellow 3              1     334
    ##  7     8 2007-09-05 yellow 3              1     336
    ##  8     9 2007-09-10 yellow 3              1     338
    ##  9    10 2007-09-10 yellow 3              2     340
    ## 10    11 2007-09-11 yellow 3              1     347
    ## # ... with 331 more rows
…
    ## [1] "SUN" NA    "CLD"

``` r
chop_header_cleaner <- chop_header %>%
  mutate(date = as_date(date)) %>%
  mutate_if(is.character, str_to_lower) %>% 
  mutate(crew = str_replace_all(crew, " ", ","),
         crew = str_replace_all(crew, ",,", ",")) %>% 
  select(-c(time))

chop_header_cleaner
```

    ## # A tibble: 75 x 8
    ##       id tag_col  date       crew        recorder weather comment week_num
    ##    <dbl> <chr>    <date>     <chr>       <chr>    <chr>   <chr>      <dbl>
    ##  1     4 blue 1   2007-09-04 kt,kh,gs    gs       sun     <NA>           1
    ##  2     3 blue 1   2007-09-04 kt,kh,gs    gs       <NA>    <NA>           1
    ##  3     1 blue 1   2007-09-04 tv,km,ks,kw <NA>     <NA>    <NA>           1
    ##  4     5 blue 1   2007-09-05 kt,kh,gs    <NA>     sun     <NA>           1
    ##  5     6 blue 1   2007-09-05 kt,kh,gs    <NA>     sun     <NA>           1
    ##  6     7 blue 1   2007-09-05 kt,kh,gas   <NA>     <NA>    <NA>           1
    ##  7     8 blue 1   2007-09-05 tv,ks,kw    <NA>     sun     <NA>           1
    ##  8     9 orange 2 2007-09-10 cc,kw,rb    <NA>     sun     <NA>           2
    ##  9    10 orange 2 2007-09-10 kt,kh,gs    <NA>     sun     <NA>           2
    ## 10    11 orange 2 2007-09-11 kt,kh,km    <NA>     sun     <NA>           2
    ## # ... with 65 more rows
…
