…
    ## Joining, by = "date"

``` r
full_join(total_chops_summary, total_tags_summary) %>% 
  select(date, total_chops, total_tags) %>% 
  pivot_longer(c(total_chops, total_tags), names_to = "mark")
```

    ## Joining, by = "date"

    ## # A tibble: 106 x 3
    ##    date       mark        value
    ##    <date>     <chr>       <dbl>
    ##  1 2005-09-06 total_chops     5
    ##  2 2005-09-06 total_tags      0
    ##  3 2005-09-07 total_chops     1
    ##  4 2005-09-07 total_tags      0
    ##  5 2005-09-12 total_chops     1
    ##  6 2005-09-12 total_tags      1
    ##  7 2005-09-14 total_chops     9
    ##  8 2005-09-14 total_tags      0
    ##  9 2005-09-19 total_chops     9
    ## 10 2005-09-19 total_tags      0
    ## # ... with 96 more rows
…
    ## [1] "L" "M" "R" NA

``` r
chop_channel_cleaner <- chop_channel_join %>%
  mutate(date = as_date(date)) %>%
  mutate_if(is.character, str_to_lower) %>% 
  select(-c(time, male, fem, gril, tag_count))


chop_channel_cleaner
```

    ## # A tibble: 2,445 x 13
    ##       id tag_col date       chan_id  sect chan    min chop_clip chop_n_clip
    ##    <dbl> <chr>   <date>       <dbl> <dbl> <chr> <dbl>     <dbl>       <dbl>
    ##  1   545 red1    2005-09-06     385     1 l         3         0           0
    ##  2   545 red1    2005-09-06     386     1 m         4         0           0
    ##  3   545 red1    2005-09-06     387     1 r         3         0           0
    ##  4   545 red1    2005-09-06     388     2 l         5         0           0
    ##  5   545 red1    2005-09-06     389     2 m         3         0           0
    ##  6   545 red1    2005-09-06     390     2 r         5         0           0
    ##  7   545 red1    2005-09-06     391     3 l         4         0           0
    ##  8   545 red1    2005-09-06     392     3 m         2         0           0
    ##  9   545 red1    2005-09-06     393     3 r         4         0           0
    ## 10   545 red1    2005-09-06     394     4 l         4         0           0
    ## # ... with 2,435 more rows, and 4 more variables: chop_uncheck <dbl>,
    ## #   tag_clip <dbl>, tag_n_clip <dbl>, tag_unk <dbl>
…
    ## [1] NA

``` r
chop_recovery_cleaner <- chop_recovery_join %>% 
  mutate(date = as_date(date)) %>%
  mutate_if(is.character, str_to_lower) %>% 
  select(-c(date,time))

chop_recovery_cleaner
```

    ## # A tibble: 134 x 4
    ##       id recov_color recov_count chan_id
    ##    <dbl> <chr>             <dbl>   <dbl>
    ##  1   545 <NA>                 NA      NA
    ##  2   539 <NA>                 NA      NA
    ##  3   540 <NA>                 NA      NA
    ##  4   541 <NA>                 NA      NA
    ##  5   542 <NA>                 NA      NA
    ##  6   543 <NA>                 NA      NA
    ##  7   544 <NA>                 NA      NA
    ##  8   546 <NA>                 NA      NA
    ##  9   551 <NA>                 NA      NA
    ## 10   547 <NA>                 NA      NA
    ## # ... with 124 more rows
…
    ## [1] "SUN" NA    "CLD" "RAN"

``` r
chop_header_cleaner <- chop_header %>%
  mutate(date = as_date(date)) %>%
  mutate_if(is.character, str_to_lower) %>% 
  mutate(crew = str_replace_all(crew, " ", ","),
         crew = str_replace_all(crew, ",,", ","),
         weather = ifelse(weather == "ran", "rain", weather)) %>% 
  select(-c(time))

chop_header_cleaner
```

    ## # A tibble: 134 x 8
    ##       id tag_col date       crew        recorder weather comment week_num
    ##    <dbl> <chr>   <date>     <chr>       <chr>    <chr>   <chr>      <dbl>
    ##  1   545 red1    2005-09-06 jk,dg,ph,dg dg       sun     <NA>           1
    ##  2   539 red1    2005-09-07 nd,bk,dg,tv dg       sun     <NA>           1
    ##  3   540 red1    2005-09-07 nd,tv,bk,dg dg       sun     <NA>           1
    ##  4   541 red1    2005-09-07 tv,bk,dg,nd dg       sun     <NA>           1
    ##  5   542 red1    2005-09-07 nd,bk,tv,dg dg       sun     <NA>           1
    ##  6   543 red1    2005-09-07 dg,bk,tv,nd dg       sun     <NA>           1
    ##  7   544 red1    2005-09-07 tv,dg,nd,bk dg       sun     <NA>           1
    ##  8   546 yellow2 2005-09-12 jr,bk,hk    jr       sun     <NA>           2
    ##  9   551 yellow2 2005-09-14 dg,kh,bk    dg       sun     <NA>           2
    ## 10   547 yellow2 2005-09-14 kh,dg,ph,bk dg       sun     <NA>           2
    ## # ... with 124 more rows
…
