…
    ## [1] "L" "M" "R" NA

``` r
chop_channel_cleaner <- chop_channel_join %>%
  mutate(date = as_date(date),
         tag_col = str_replace_all(tag_col, " ", "")) %>%
  mutate_if(is.character, str_to_lower) %>% 
  select(-c(time))

chop_channel_cleaner
```

    ## # A tibble: 1,936 x 9
    ##       id tag_col date       chan_id  sect chan    min chops  tags
    ##    <dbl> <chr>   <date>       <dbl> <dbl> <chr> <dbl> <dbl> <dbl>
    ##  1     1 white1  2009-09-08       1     1 l         5     0     0
    ##  2     1 white1  2009-09-08       2     1 m         4     0     0
    ##  3     1 white1  2009-09-08       3     1 r         5     0     0
    ##  4     1 white1  2009-09-08       4     2 l         3     0     0
    ##  5     1 white1  2009-09-08       5     2 m         3     0     0
    ##  6     1 white1  2009-09-08       6     2 r         3     0     0
    ##  7     1 white1  2009-09-08       7     3 l         3     0     0
    ##  8     1 white1  2009-09-08       8     3 m         2     0     0
    ##  9     1 white1  2009-09-08       9     3 r         3     0     0
    ## 10     1 white1  2009-09-08      10     4 l         2     0     0
    ## # ... with 1,926 more rows
…
    ##  [1] "YELLOW4"  "WHITE 5"  NA         "BLUE6"    "RED7"     "YELLOW8" 
    ##  [7] "BLUE10"   "WHITE9"   "RED11"    "YELLOW12"

``` r
chop_recovery_cleaner <- chop_recovery_join %>% 
  mutate(date = as_date(date),
         recov_color = str_replace_all(recov_color, " ", "")) %>%
  mutate_if(is.character, str_to_lower) %>% 
  select(-c(time))

chop_recovery_cleaner
```

    ## # A tibble: 87 x 5
    ##       id date       recov_color recov_count chan_id
    ##    <dbl> <date>     <chr>             <dbl>   <dbl>
    ##  1     1 2009-09-08 yellow4               1     531
    ##  2     2 2009-09-09 yellow4               1     539
    ##  3     3 2009-09-15 white5                1     654
    ##  4     4 2009-09-16 yellow4               1     655
    ##  5     5 2009-09-21 yellow4               1     659
    ##  6     6 2009-09-22 white5                1     679
    ##  7     7 2009-09-29 white5                1     682
    ##  8     8 2009-09-30 yellow4               1     682
    ##  9     9 2009-10-01 white5                1     684
    ## 10    10 2009-10-05 <NA>                 NA      NA
    ## # ... with 77 more rows
…
    ## [1] "SUN" NA    "CLD" "RAN"

``` r
chop_header_cleaner <- chop_header %>%
  mutate(date = as_date(date)) %>%
  mutate_if(is.character, str_to_lower) %>% 
  mutate(crew = str_replace_all(crew, " ", ","),
         crew = str_replace_all(crew, ",,", ","),
         weather = ifelse(weather == "ran", "rain", weather)) %>% 
  select(-c(time))

chop_header_cleaner
```

    ## # A tibble: 44 x 8
    ##       id tag_col date       crew              recorder weather comment week_num
    ##    <dbl> <chr>   <date>     <chr>             <chr>    <chr>   <chr>      <dbl>
    ##  1     1 white1  2009-09-08 kk,kh,mm,rr       <NA>     sun     <NA>           1
    ##  2     2 white1  2009-09-09 kh,mm             mm       <NA>    <NA>           1
    ##  3     3 blue2   2009-09-15 kk,kh,mm,rr       mm       sun     <NA>           2
    ##  4     4 blue2   2009-09-16 kh,jr,rr          <NA>     <NA>    <NA>           2
    ##  5     5 white3  2009-09-21 kh,jr,rr          <NA>     sun     <NA>           3
    ##  6     6 white3  2009-09-22 kh,jr,rr          <NA>     sun     <NA>           3
    ##  7     7 yellow4 2009-09-29 kk,kh,rr          <NA>     cld     <NA>           4
    ##  8     8 yellow4 2009-09-30 kh,rr,jr,tv       <NA>     sun     <NA>           4
    ##  9     9 yellow4 2009-10-01 rr,mm             mm       sun     <NA>           4
    ## 10    10 white 5 2009-10-05 aj,tk,kh,tv,jc,jr aj       sun     <NA>           5
    ## # ... with 34 more rows
…
