…
    ## Joining, by = "date"

``` r
full_join(total_chops_summary, total_tags_summary) %>% 
  select(date, total_chops, total_tags) %>% 
  pivot_longer(c(total_chops, total_tags), names_to = "mark")
```

    ## Joining, by = "date"

    ## # A tibble: 122 x 3
    ##    date                mark        value
    ##    <dttm>              <chr>       <dbl>
    ##  1 2003-09-02 00:00:00 total_chops    46
    ##  2 2003-09-02 00:00:00 total_tags      0
    ##  3 2003-09-03 00:00:00 total_chops    34
    ##  4 2003-09-03 00:00:00 total_tags      0
    ##  5 2003-09-04 00:00:00 total_chops    73
    ##  6 2003-09-04 00:00:00 total_tags      0
    ##  7 2003-09-08 00:00:00 total_chops    63
    ##  8 2003-09-08 00:00:00 total_tags      0
    ##  9 2003-09-09 00:00:00 total_chops    32
    ## 10 2003-09-09 00:00:00 total_tags      0
    ## # ... with 112 more rows
…
    ## [1] "L" "M" "R"

``` r
chop_channel_cleaner <- chop_channel_join %>%
  mutate(date = as_date(date)) %>%
  mutate_if(is.character, str_to_lower) %>% 
  select(-c(time))

chop_channel_cleaner
```

    ## # A tibble: 2,333 x 11
    ##       id tag_col      date       chan_id  sect chan    min male_chop female_chop
    ##    <dbl> <chr>        <date>       <dbl> <dbl> <chr> <dbl>     <dbl>       <dbl>
    ##  1     1 orange and ~ 2003-09-02       1     1 l        14         0           2
    ##  2     1 orange and ~ 2003-09-02       2     1 m        14         0           0
    ##  3     1 orange and ~ 2003-09-02       3     1 r        13         0           0
    ##  4     1 orange and ~ 2003-09-02       4     3 l         7         0           1
    ##  5     1 orange and ~ 2003-09-02       5     3 m         8         0           0
    ##  6     1 orange and ~ 2003-09-02       6     3 r         7         0           0
    ##  7     1 orange and ~ 2003-09-02       7     5 l         2         0           0
    ##  8     1 orange and ~ 2003-09-02       8     5 m         2         0           0
    ##  9     1 orange and ~ 2003-09-02       9     5 r         2         0           0
    ## 10     1 orange and ~ 2003-09-02      10     7 l         3         0           0
    ## # ... with 2,323 more rows, and 2 more variables: grilse <dbl>, tag_count <dbl>
…
``` r
chop_recovery_cleaner <- chop_recovery_join %>% 
  mutate(date = as_date(date)) %>%
  mutate_if(is.character, str_to_lower) %>% 
  select(-c(time))

chop_recovery_cleaner
```

    ## # A tibble: 1,467 x 5
    ##       id date       recov_color      recov_count chan_id
    ##    <dbl> <date>     <chr>                  <dbl>   <dbl>
    ##  1     1 2003-09-02 orange and black           1     142
    ##  2     2 2003-09-02 orange and black           2     143
    ##  3     3 2003-09-02 orange and black           1     147
    ##  4     4 2003-09-02 orange and black           2     152
    ##  5     5 2003-09-02 orange and black           3     154
    ##  6     6 2003-09-02 orange and black           2     155
    ##  7     7 2003-09-03 orange and black           1     156
    ##  8     8 2003-09-03 orange and black           1     160
    ##  9     9 2003-09-03 orange and black           2     161
    ## 10    10 2003-09-03 orange and black           1     162
    ## # ... with 1,457 more rows
…
    ## [1] "SUN" "CLD" NA    "RAN"

``` r
chop_header_cleaner <- chop_header %>%
  mutate(date = as_date(date)) %>%
  mutate_if(is.character, str_to_lower) %>% 
  mutate(crew = str_replace_all(crew, " ", ","),
         crew = str_replace_all(crew, ",,", ","),
         weather = ifelse(weather == "ran", "rain", weather)) %>%  
  select(-c(time))

chop_header_cleaner
```

    ## # A tibble: 344 x 8
    ##       id tag_col          date       crew      recorder weather comment week_num
    ##    <dbl> <chr>            <date>     <chr>     <chr>    <chr>   <chr>      <dbl>
    ##  1     1 orange and black 2003-09-02 rb,jk,at  <NA>     sun     <NA>           1
    ##  2     2 orange and black 2003-09-02 jk,at,rb  <NA>     sun     <NA>           1
    ##  3     3 orange and black 2003-09-02 jk,at,rb  jk       sun     <NA>           1
    ##  4     4 orange and black 2003-09-02 dg,nd     dg       sun     <NA>           1
    ##  5     5 orange and black 2003-09-02 nd,bk,km~ km       sun     <NA>           1
    ##  6     6 orange and black 2003-09-02 km,nd,dg~ km       sun     <NA>           1
    ##  7     7 orange and black 2003-09-03 jk,ph,dg~ jk       cld     <NA>           1
    ##  8     8 orange and black 2003-09-03 ph,jk,tv~ dg       cld     <NA>           1
    ##  9     9 orange and black 2003-09-03 jk,tv,ph~ ph       cld     <NA>           1
    ## 10    10 orange and black 2003-09-03 jk,tv,dg~ ph       cld     <NA>           1
    ## # ... with 334 more rows
…
