…
    ## Joining, by = "date"

``` r
full_join(total_chops_summary, total_tags_with_dates_summary) %>% 
  select(date, total_chops, total_tags) %>% 
  pivot_longer(c(total_chops, total_tags), names_to = "mark")
```

    ## Joining, by = "date"

    ## # A tibble: 200 x 3
    ##    date                mark        value
    ##    <dttm>              <chr>       <dbl>
    ##  1 2001-09-10 00:00:00 total_chops    45
    ##  2 2001-09-10 00:00:00 total_tags     NA
    ##  3 2001-09-11 00:00:00 total_chops    94
    ##  4 2001-09-11 00:00:00 total_tags     NA
    ##  5 2001-09-12 00:00:00 total_chops    21
    ##  6 2001-09-12 00:00:00 total_tags     NA
    ##  7 2001-09-13 00:00:00 total_chops    20
    ##  8 2001-09-13 00:00:00 total_tags     NA
    ##  9 2001-09-17 00:00:00 total_chops    83
    ## 10 2001-09-17 00:00:00 total_tags     NA
    ## # ... with 190 more rows
…
