…
    ## Joining, by = "date"

``` r
full_join(total_chops_summary, total_tags_summary) %>% 
  select(date, total_chops, total_tags) %>% 
  pivot_longer(c(total_chops, total_tags), names_to = "mark")
```

    ## Joining, by = "date"

    ## # A tibble: 122 x 3
    ##    date                mark        value
    ##    <dttm>              <chr>       <dbl>
    ##  1 2006-09-05 00:00:00 total_chops    14
    ##  2 2006-09-05 00:00:00 total_tags      0
    ##  3 2006-09-07 00:00:00 total_chops    30
    ##  4 2006-09-07 00:00:00 total_tags      0
    ##  5 2006-09-11 00:00:00 total_chops    21
    ##  6 2006-09-11 00:00:00 total_tags      0
    ##  7 2006-09-12 00:00:00 total_chops    58
    ##  8 2006-09-12 00:00:00 total_tags      0
    ##  9 2006-09-13 00:00:00 total_chops     9
    ## 10 2006-09-13 00:00:00 total_tags      0
    ## # ... with 112 more rows
…
    ## [1] "L" "M" "R" NA

``` r
chop_channel_cleaner <- chop_channel_join %>%
  mutate(date = as_date(date)) %>%
  mutate_if(is.character, str_to_lower) %>% 
  select(-c(time))

chop_channel_cleaner
```

    ## # A tibble: 2,249 x 13
    ##       id tag_col date       chan_id  sect chan    min chop_clip chop_n_clip
    ##    <dbl> <chr>   <date>       <dbl> <dbl> <chr> <dbl>     <dbl>       <dbl>
    ##  1   655 orange1 2006-09-05    2538     1 l         7         0           0
    ##  2   655 orange1 2006-09-05    2539     1 m         7         0           0
    ##  3   655 orange1 2006-09-05    2540     1 r         9         0           0
    ##  4   655 orange1 2006-09-05    2541     3 l         5         0           1
    ##  5   655 orange1 2006-09-05    2542     3 m         5         0           0
    ##  6   655 orange1 2006-09-05    2543     3 r         4         0           0
    ##  7   655 orange1 2006-09-05    2544     2 l         5         0           0
    ##  8   655 orange1 2006-09-05    2545     2 m         4         0           0
    ##  9   655 orange1 2006-09-05    2546     2 r         6         0           0
    ## 10   655 orange1 2006-09-05    2547     4 l         5         0           1
    ## # ... with 2,239 more rows, and 4 more variables: chop_uncheck <dbl>,
    ## #   tag_clip <dbl>, tag_n_clip <dbl>, tag_unk <dbl>
…
    ##  [1] NA         "ORANGE1"  "BLUE2"    "RED3"     "YELLOW4"  "ORANGE5" 
    ##  [7] "ORANGE9"  "RED7"     "YELLOW8"  "BLUE6"    "RED15"    "BLUE14"  
    ## [13] "ORANGE13" "YELLOW12" "BLUE10"   "RED11"

``` r
chop_recovery_cleaner <- chop_recovery_join %>% 
  mutate(date = as_date(date)) %>%
  mutate_if(is.character, str_to_lower) %>% 
  select(-c(time))

chop_recovery_cleaner
```

    ## # A tibble: 893 x 5
    ##       id date       recov_color recov_count chan_id
    ##    <dbl> <date>     <chr>             <dbl>   <dbl>
    ##  1   655 2006-09-05 <NA>                 NA      NA
    ##  2   656 2006-09-07 <NA>                 NA      NA
    ##  3   657 2006-09-07 <NA>                 NA      NA
    ##  4   660 2006-09-11 <NA>                 NA      NA
    ##  5   664 2006-09-11 <NA>                 NA      NA
    ##  6   667 2006-09-12 <NA>                 NA      NA
    ##  7   665 2006-09-12 <NA>                 NA      NA
    ##  8   668 2006-09-13 <NA>                 NA      NA
    ##  9   669 2006-09-18 <NA>                 NA      NA
    ## 10   670 2006-09-18 <NA>                 NA      NA
    ## # ... with 883 more rows
…
