…
    ## character(0)

``` r
chop_cleaner <- chop_join %>%
  mutate(date = as_date(date)) %>%
  mutate_if(is.character, str_to_lower) %>% 
  select(-chop_id)

chop_cleaner
```

    ## # A tibble: 976 x 5
    ##       id date         sec   min count
    ##    <dbl> <date>     <dbl> <dbl> <dbl>
    ##  1     1 2016-08-17    21    28     0
    ##  2     1 2016-08-17    20    10     0
    ##  3     1 2016-08-17    19    17     0
    ##  4     1 2016-08-17    18     8     0
    ##  5     1 2016-08-17    17    14     0
    ##  6     1 2016-08-17    16    27     0
    ##  7     1 2016-08-17    15    28     0
    ##  8     1 2016-08-17    14    28     0
    ##  9     1 2016-08-17    13    20     0
    ## 10     1 2016-08-17    12    12     0
    ## # ... with 966 more rows
…
chop_header_cleaner
```

    ## # A tibble: 115 x 6
    ##    date                week_number weather crew     comments                  id
    ##    <dttm>              <chr>       <chr>   <chr>    <chr>                  <dbl>
    ##  1 2016-08-17 00:00:00 <NA>        sun     tk,mh    pre carcass                1
    ##  2 2016-08-18 00:00:00 pre carcass sun     jcall,tv <NA>                       2
    ##  3 2016-08-22 00:00:00 pre carcass sun     mh,tk    <NA>                       4
    ##  4 2016-08-23 00:00:00 pre carcass sun     mh,tk    <NA>                       3
    ##  5 2016-08-24 00:00:00 pre-carcass sun     mh,tk    <NA>                       5
    ##  6 2016-08-24 00:00:00 pre carcass sun     <NA>     <NA>                       6
    ##  7 2016-08-29 00:00:00 pre carcass sun     mh,tk    <NA>                      10
    ##  8 2016-08-30 00:00:00 pre carcass sun     tk,kt    <NA>                      11
    ##  9 2016-09-06 00:00:00 1           sun     sr,mi,tk the two chops were fi~    12
    ## 10 2016-09-07 00:00:00 1           sun     cm,tk,cc <NA>                      13
    ## # ... with 105 more rows
…
