…
    ## character(0)

``` r
chop_cleaner <- chop_join %>%
  mutate(date = as_date(date)) %>%
  mutate_if(is.character, str_to_lower) 

chop_cleaner
```

    ## # A tibble: 1,056 x 5
    ##       id date         sec   min count
    ##    <dbl> <date>     <dbl> <dbl> <dbl>
    ##  1   176 2014-09-08    15    18     0
    ##  2   176 2014-09-08    14    12     0
    ##  3   176 2014-09-08    13    12     0
    ##  4   176 2014-09-08    12    11     0
    ##  5   176 2014-09-08    11    11     0
    ##  6   176 2014-09-08    10    23     0
    ##  7   176 2014-09-08     9    12     0
    ##  8   176 2014-09-08     8    10     0
    ##  9   176 2014-09-08     6     2     0
    ## 10   176 2014-09-08     4     3     0
    ## # ... with 1,046 more rows
…
chop_header_cleaner
```

    ## # A tibble: 136 x 6
    ##    date                   id week_number weather crew               comments
    ##    <dttm>              <dbl> <chr>       <chr>   <chr>              <chr>   
    ##  1 2014-09-08 00:00:00   176 2           sun     sr,th,cm           <NA>    
    ##  2 2014-09-08 00:00:00   177 2           sun     kh,mi,bl           <NA>    
    ##  3 2014-09-10 00:00:00   178 2           sun     cm,kl,kh,mi        <NA>    
    ##  4 2014-09-09 00:00:00   179 2           sun     kl,ai,sr,th        <NA>    
    ##  5 2014-09-09 00:00:00   180 2           sun     cm,mi,bl,kh        <NA>    
    ##  6 2014-09-15 00:00:00   181 3           sun     kh,sj,bl,mi        <NA>    
    ##  7 2014-09-15 00:00:00   182 3           sun     sr,ah,bl,mi        <NA>    
    ##  8 2014-09-15 00:00:00   183 3           sun     kh,kl,taylor,scott <NA>    
    ##  9 2014-09-16 00:00:00   184 3           sun     kl,th,sr,sf        <NA>    
    ## 10 2014-09-16 00:00:00   185 3           sun     mi,bl,ai,kh        <NA>    
    ## # ... with 126 more rows
…
