…
**NA and Unknown Values**

-   0 % of values in the `count` column are NA.

### Variable `fork_length`

**Description:** fork length in millimeters (mm)

Need to filter out 0s

``` r
cleaner_data %>% filter(fork_length == 0)
```

    ## # A tibble: 1,892 x 23
    ##    date       station    trap_status dead  count fork_length weight mark_code
    ##    <date>     <chr>      <chr>       <lgl> <dbl>       <dbl>  <dbl> <chr>    
    ##  1 1995-12-02 Okie Dam 1 check       TRUE      3           0      0 <NA>     
    ##  2 1995-12-03 Okie Dam 1 check       NA       97           0      0 <NA>     
    ##  3 1995-12-03 Okie Dam 1 check       NA        6           0      0 <NA>     
    ##  4 1995-12-05 Okie Dam 1 check       TRUE     63           0      0 <NA>     
    ##  5 1995-12-06 Okie Dam 1 check       FALSE   139           0      0 <NA>     
    ##  6 1995-12-06 Okie Dam 1 check       NA      130           0      0 <NA>     
    ##  7 1995-12-08 Okie Dam 1 check       TRUE     34           0      0 <NA>     
    ##  8 1995-12-08 Okie Dam 1 check       FALSE   515           0      0 <NA>     
    ##  9 1995-12-09 Okie Dam 1 check       NA      444           0      0 <NA>     
    ## 10 1995-12-09 Okie Dam 1 check       TRUE      9           0      0 <NA>     
    ## # ... with 1,882 more rows, and 15 more variables: lifestage <chr>,
    ## #   time <time>, gear_id <chr>, weather <chr>, temperature <dbl>,
    ## #   turbidity <dbl>, secchi <dbl>, velocity <dbl>, north_brush <chr>,
    ## #   south_brush <chr>, trap_revolutions <dbl>, debris <chr>, rpms_start <dbl>,
    ## #   rpms_end <dbl>, comments <chr>
…
**NA and Unknown Values**

-   8.1 % of values in the `fork_length` column are NA.

### Variable `weight`

**Description:** wet weight in grams(g)

Need to filter out 0s

``` r
cleaner_data %>% filter(weight == 0)
```

    ## # A tibble: 17,375 x 23
    ##    date       station    trap_status dead  count fork_length weight mark_code
    ##    <date>     <chr>      <chr>       <lgl> <dbl>       <dbl>  <dbl> <chr>    
    ##  1 1995-11-29 Okie Dam 1 check       FALSE     1          38      0 <NA>     
    ##  2 1995-11-29 Okie Dam 1 check       FALSE     2          37      0 <NA>     
    ##  3 1995-11-29 Okie Dam 1 check       FALSE     1          39      0 <NA>     
    ##  4 1995-11-29 Okie Dam 1 check       TRUE      8          35      0 <NA>     
    ##  5 1995-11-29 Okie Dam 1 check       TRUE      1          33      0 <NA>     
    ##  6 1995-11-29 Okie Dam 1 check       TRUE      5          34      0 <NA>     
    ##  7 1995-11-29 Okie Dam 1 check       TRUE      4          36      0 <NA>     
    ##  8 1995-11-29 Okie Dam 1 check       TRUE      1          37      0 <NA>     
    ##  9 1995-11-29 Okie Dam 1 check       FALSE     1          36      0 <NA>     
    ## 10 1995-11-29 Okie Dam 1 check       FALSE     1          34      0 <NA>     
    ## # ... with 17,365 more rows, and 15 more variables: lifestage <chr>,
    ## #   time <time>, gear_id <chr>, weather <chr>, temperature <dbl>,
    ## #   turbidity <dbl>, secchi <dbl>, velocity <dbl>, north_brush <chr>,
    ## #   south_brush <chr>, trap_revolutions <dbl>, debris <chr>, rpms_start <dbl>,
    ## #   rpms_end <dbl>, comments <chr>
…
